{
  "project_info": {
    "project_number": "49766804071",
    "project_id": "project-charcoal-f156c",
    "storage_bucket": "project-charcoal-f156c.appspot.com"
  },
  "client": [
    {
      "client_info": {
        "mobilesdk_app_id": "1:49766804071:android:89483871c2d68cd34c02c2",
        "android_client_info": {
          "package_name": "com.anelloh.app"
        }
      },
      "oauth_client": [
        {
          "client_id": "49766804071-bsk1cuql38gdones1fqhj1q2lmfh5pil.apps.googleusercontent.com",
          "client_type": 3
        }
      ],
      "api_key": [
        {
          "current_key": "AIzaSyDepFhEjMfvZr5LcCXUclnV2HltEu1G_rY"
        }
      ],
      "services": {
        "appinvite_service": {
          "other_platform_oauth_client": [
            {
              "client_id": "49766804071-bsk1cuql38gdones1fqhj1q2lmfh5pil.apps.googleusercontent.com",
              "client_type": 3
            },
            {
              "client_id": "49766804071-1210g556brrver56fot0s1v4s87hns6v.apps.googleusercontent.com",
              "client_type": 2,
              "ios_info": {
                "bundle_id": "com.anelloh.app"
              }
            }
          ]
        }
      }
    },
    {
      "client_info": {
        "mobilesdk_app_id": "1:49766804071:android:ba511543ba84771e4c02c2",
        "android_client_info": {
          "package_name": "com.anelloh.staging"
        }
      },
      "oauth_client": [
        {
          "client_id": "49766804071-bsk1cuql38gdones1fqhj1q2lmfh5pil.apps.googleusercontent.com",
          "client_type": 3
        }
      ],
      "api_key": [
        {
          "current_key": "AIzaSyDepFhEjMfvZr5LcCXUclnV2HltEu1G_rY"
        }
      ],
      "services": {
        "appinvite_service": {
          "other_platform_oauth_client": [
            {
              "client_id": "49766804071-bsk1cuql38gdones1fqhj1q2lmfh5pil.apps.googleusercontent.com",
              "client_type": 3
            },
            {
              "client_id": "49766804071-1210g556brrver56fot0s1v4s87hns6v.apps.googleusercontent.com",
              "client_type": 2,
              "ios_info": {
                "bundle_id": "com.anelloh.app"
              }
            }
          ]
        }
      }
    },
    {
      "client_info": {
        "mobilesdk_app_id": "1:49766804071:android:106b54a9ca39a19c4c02c2",
        "android_client_info": {
          "package_name": "com.anelloh.test"
        }
      },
      "oauth_client": [
        {
          "client_id": "49766804071-bsk1cuql38gdones1fqhj1q2lmfh5pil.apps.googleusercontent.com",
          "client_type": 3
        }
      ],
      "api_key": [
        {
          "current_key": "AIzaSyDepFhEjMfvZr5LcCXUclnV2HltEu1G_rY"
        }
      ],
      "services": {
        "appinvite_service": {
          "other_platform_oauth_client": [
            {
              "client_id": "49766804071-bsk1cuql38gdones1fqhj1q2lmfh5pil.apps.googleusercontent.com",
              "client_type": 3
            },
            {
              "client_id": "49766804071-1210g556brrver56fot0s1v4s87hns6v.apps.googleusercontent.com",
              "client_type": 2,
              "ios_info": {
                "bundle_id": "com.anelloh.app"
              }
            }
          ]
        }
      }
    }
  ],
  "configuration_version": "1"
}