{
  "order": {
    "customerId": "bdb4fb3f-2a3f-445a-b3d4-20edf49dccd0",
    "userName": "simisolais",
    "email": "isimi.simisola@gmail.com",
    "orderNo": "CE2290B119CE46E0B4A580DE84DAE097",
    "applicationType": 1,
    "receipt": null,
    "myAmount": 4961.0,
    "totalAmount": 5209.05,
    "myCurrency": "NGN",
    "rate": 451.0,
    "myAccountNumber": "1504846464",
    "myBankName": "121 Financial Credit Union",
    "bankRouteNo": "4513131042",
    "myPaymentChannelId": 1,
    "myPaymentReferenceNo": "18052021175134002-CE2290B119CE46E0B4A580DE84DAE097",
    "myPaymentResponse": "Verification successful",
    "myPaymentError": null,
    "convertedCurrency": "USD",
    "convertedAmount": 11.0,
    "convertedPaymentChannelId": 3,
    "convertedPaymentReferenceNo": null,
    "convertedPaymentResponse": null,
    "convertedPaymentError": null,
    "transactionFee": 248.05,
    "transactionFeeCurrency": null,
    "orderStatus": 2,
    "orderStatusDesc": "Open",
    "paymentStatus": 2,
    "paymentStatusDesc": "Successful",
    "isReversed": false,
    "refundFee": 0.0,
    "customer": {
      "customerId": "bdb4fb3f-2a3f-445a-b3d4-20edf49dccd0",
      "firstName": "simisola",
      "middleName": null,
      "lastName": "isimi",
      "name": "simisola isimi",
      "bvn": 154846494,
      "gender": 0,
      "address": "Null",
      "customerImageFileLocation": null,
      "dateOfBirth": "2021-05-18T14:07:57.885058",
      "password": null,
      "countryCode": "NG",
      "documentType": 1,
      "documentNumber": "45464994045",
      "documentExpiryDate": "0001-01-01T00:00:00",
      "documentImage": "simisola_8169359741_DocumentImage.png",
      "createdBy": "isimi.simisola@gmail.com",
      "createdDate": "2021-05-18T14:08:05.220241",
      "lastModifiedBy": null,
      "lastModifiedDate": null,
      "status": 1,
      "deviceId": null,
      "deviceNotificationId": null,
      "ssn": null,
      "isVerified": false,
      "isLockedOut": false,
      "noOfPasswordRetries": 0,
      "lastAccessedDate": "0001-01-01T00:00:00",
      "userLoginCount": 0,
      "applicationType": 1,
      "pin": 0,
      "token": "Verified",
      "isSystemCustomer": false,
      "ngN_BankCode": null,
      "ngN_BankName": null,
      "ngN_AccountNo": null,
      "usD_BankName": null,
      "usD_AccountNo": null,
      "usD_RoutingNumber": null,
      "id": "bdb4fb3f-2a3f-445a-b3d4-20edf49dccd0",
      "userName": "simisolais",
      "normalizedUserName": "SIMISOLAIS",
      "email": "isimi.simisola@gmail.com",
      "normalizedEmail": "ISIMI.SIMISOLA@GMAIL.COM",
      "emailConfirmed": true,
      "passwordHash": "AQAAAAEAACcQAAAAEFTmez+aKcRqzLUQwmwEColtWM9tDQ6W/hbRyJaCWAORAJywpE+A9UVUtBFM+bM7qA==",
      "securityStamp": "D2OJ6ZDXNPQDR4SO73SMFJDX5S5WW22U",
      "concurrencyStamp": "a1621922-97f3-4f81-894b-e90b5c39148c",
      "phoneNumber": "8169359741",
      "phoneNumberConfirmed": false,
      "twoFactorEnabled": false,
      "lockoutEnd": null,
      "lockoutEnabled": true,
      "accessFailedCount": 0
    },
    "myPaymentChannel": null,
    "convertedPaymentChannel": null,
    "id": 118,
    "name": null,
    "createdBy": "bdb4fb3f-2a3f-445a-b3d4-20edf49dccd0",
    "createdDate": "2021-05-18T17:51:17.5299448",
    "lastModifiedBy": "bdb4fb3f-2a3f-445a-b3d4-20edf49dccd0",
    "lastModifiedDate": "2021-05-18T17:51:51.4499111",
    "status": 1,
    "statusDesc": "Active"
  },
  "isMatched": true,
  "matchedOrder": {
    "myOrderId": 118,
    "myOrder": {
      "customerId": "bdb4fb3f-2a3f-445a-b3d4-20edf49dccd0",
      "userName": "simisolais",
      "email": "isimi.simisola@gmail.com",
      "orderNo": "CE2290B119CE46E0B4A580DE84DAE097",
      "applicationType": 1,
      "receipt": null,
      "myAmount": 4961.0,
      "totalAmount": 5209.05,
      "myCurrency": "NGN",
      "rate": 451.0,
      "myAccountNumber": "1504846464",
      "myBankName": "121 Financial Credit Union",
      "bankRouteNo": "4513131042",
      "myPaymentChannelId": 1,
      "myPaymentReferenceNo": "18052021175134002-CE2290B119CE46E0B4A580DE84DAE097",
      "myPaymentResponse": "Verification successful",
      "myPaymentError": null,
      "convertedCurrency": "USD",
      "convertedAmount": 11.0,
      "convertedPaymentChannelId": 3,
      "convertedPaymentReferenceNo": null,
      "convertedPaymentResponse": null,
      "convertedPaymentError": null,
      "transactionFee": 248.05,
      "transactionFeeCurrency": null,
      "orderStatus": 2,
      "orderStatusDesc": "Open",
      "paymentStatus": 2,
      "paymentStatusDesc": "Successful",
      "isReversed": false,
      "refundFee": 0.0,
      "customer": {
        "customerId": "bdb4fb3f-2a3f-445a-b3d4-20edf49dccd0",
        "firstName": "simisola",
        "middleName": null,
        "lastName": "isimi",
        "name": "simisola isimi",
        "bvn": 154846494,
        "gender": 0,
        "address": "Null",
        "customerImageFileLocation": null,
        "dateOfBirth": "2021-05-18T14:07:57.885058",
        "password": null,
        "countryCode": "NG",
        "documentType": 1,
        "documentNumber": "45464994045",
        "documentExpiryDate": "0001-01-01T00:00:00",
        "documentImage": "simisola_8169359741_DocumentImage.png",
        "createdBy": "isimi.simisola@gmail.com",
        "createdDate": "2021-05-18T14:08:05.220241",
        "lastModifiedBy": null,
        "lastModifiedDate": null,
        "status": 1,
        "deviceId": null,
        "deviceNotificationId": null,
        "ssn": null,
        "isVerified": false,
        "isLockedOut": false,
        "noOfPasswordRetries": 0,
        "lastAccessedDate": "0001-01-01T00:00:00",
        "userLoginCount": 0,
        "applicationType": 1,
        "pin": 0,
        "token": "Verified",
        "isSystemCustomer": false,
        "ngN_BankCode": null,
        "ngN_BankName": null,
        "ngN_AccountNo": null,
        "usD_BankName": null,
        "usD_AccountNo": null,
        "usD_RoutingNumber": null,
        "id": "bdb4fb3f-2a3f-445a-b3d4-20edf49dccd0",
        "userName": "simisolais",
        "normalizedUserName": "SIMISOLAIS",
        "email": "isimi.simisola@gmail.com",
        "normalizedEmail": "ISIMI.SIMISOLA@GMAIL.COM",
        "emailConfirmed": true,
        "passwordHash": "AQAAAAEAACcQAAAAEFTmez+aKcRqzLUQwmwEColtWM9tDQ6W/hbRyJaCWAORAJywpE+A9UVUtBFM+bM7qA==",
        "securityStamp": "D2OJ6ZDXNPQDR4SO73SMFJDX5S5WW22U",
        "concurrencyStamp": "a1621922-97f3-4f81-894b-e90b5c39148c",
        "phoneNumber": "8169359741",
        "phoneNumberConfirmed": false,
        "twoFactorEnabled": false,
        "lockoutEnd": null,
        "lockoutEnabled": true,
        "accessFailedCount": 0
      },
      "myPaymentChannel": null,
      "convertedPaymentChannel": null,
      "id": 118,
      "name": null,
      "createdBy": "bdb4fb3f-2a3f-445a-b3d4-20edf49dccd0",
      "createdDate": "2021-05-18T17:51:17.5299448",
      "lastModifiedBy": "bdb4fb3f-2a3f-445a-b3d4-20edf49dccd0",
      "lastModifiedDate": "2021-05-18T17:51:51.4499111",
      "status": 1,
      "statusDesc": "Active"
    },
    "pairedOrderId": 116,
    "matchedOrderStatus": 1,
    "matchedOrderStatusDesc": "Matched",
    "matchedDate": "2021-05-18T17:51:17.5500114",
    "fulfilledDate": null,
    "processedDate": null,
    "completedDate": null,
    "cancelledDate": null,
    "refundDate": null,
    "applicationType": 0,
    "id": 68,
    "name": null,
    "createdBy": "bdb4fb3f-2a3f-445a-b3d4-20edf49dccd0",
    "createdDate": "2021-05-18T17:51:17.5608501",
    "lastModifiedBy": null,
    "lastModifiedDate": null,
    "status": 1,
    "statusDesc": "Active"
  }
}