<svg width="24" height="24" viewBox="0 0 24 24" fill="none" xmlns="http://www.w3.org/2000/svg">
    <path d="M22 5V17C22 17 22 19 20 19C18 19 18 17 18 17V5H2V16C2 16 2 19 5 19C8 19 20 19 20 19" stroke="white" stroke-linecap="round"/>
    <path d="M6 14H7" stroke="white" stroke-linecap="round"/>
    <path d="M11 14H14" stroke="white" stroke-linecap="round"/>
    <path d="M6 10H14" stroke="white" stroke-linecap="round"/>
</svg>
