<svg width="40" height="40" viewBox="0 0 40 40" fill="none" xmlns="http://www.w3.org/2000/svg">
    <g clip-path="url(#clip0)">
        <path d="M26.668 1.14307L24.334 7.61412C26.4883 14.7238 26.4883 25.276 24.334 32.3859L26.668 38.8564C34.4344 36.11 40.0001 28.7068 40.0001 19.9993C40.0001 11.2934 34.4344 3.88949 26.668 1.14307Z" fill="#518D51"/>
        <path d="M26.6678 7.61418V1.14303C24.5821 0.405388 22.3388 0.000244141 20 0.000244141C23.084 0.000244141 18.8079 10.4518 26.6678 7.61418Z" fill="#E4E4E4"/>
        <path d="M20.0002 39.9996C22.3388 39.9996 24.5822 39.5945 26.668 38.8568V32.3864C18.887 31.6095 20.0002 39.9996 20.0002 39.9996Z" fill="#E4E4E4"/>
        <path d="M0 19.9996C0 28.7361 5.60331 36.1596 13.4105 38.8833V1.11719C5.60331 3.84146 0 11.2643 0 19.9996Z" fill="#589F58"/>
        <path d="M26.668 7.6142V32.386C28.8225 25.2761 28.8225 14.7238 26.668 7.6142Z" fill="#589F58"/>
        <path d="M26.668 32.386V7.61417C25.3063 3.11926 23.0841 0.000244141 20.0001 0.000244141C17.6905 0.000244141 15.4743 0.396832 13.4106 1.1172V38.8833C15.4743 39.6036 17.6905 39.9996 20.0001 39.9996C23.0841 39.9996 25.3063 36.8806 26.668 32.386Z" fill="#F3F4F5"/>
    </g>
    <defs>
        <clipPath id="clip0">
            <rect width="40" height="40" fill="white"/>
        </clipPath>
    </defs>
</svg>
