<svg width="28" height="28" viewBox="0 0 28 28" fill="none" xmlns="http://www.w3.org/2000/svg">
    <path d="M18.1335 4.92529L21.5547 8.16842L18.3116 11.5896" stroke="white" stroke-width="1.43333" stroke-linecap="round"/>
    <path d="M4.89367 8.61353L20.4437 8.19811" stroke="white" stroke-width="1.43333" stroke-linecap="round"/>
    <path d="M8.61157 22.9639L5.19041 19.7207L8.43354 16.2996" stroke="white" stroke-width="1.43333" stroke-linecap="round"/>
    <path d="M21.851 19.2756L6.30095 19.691" stroke="white" stroke-width="1.43333" stroke-linecap="round"/>
</svg>
